…
### Make a figure for publication

    ## # A tibble: 24 x 20
    ## # Groups:   Parasite.species, Host.no [24]
    ##    Parasite.species Host.no Def.int host.bm Parasite.group   lcl adult_biov
    ##    <chr>              <int> <chr>     <dbl> <chr>          <int>      <dbl>
    ##  1 Cystocaulus ocr~       2 def      59549. nematode           2     0.777 
    ##  2 Elaphostrongylu~       2 def     408700. nematode           2     3.38  
    ##  3 Elaphostrongylu~       2 def     117342. nematode           2     1.85  
    ##  4 Elaphostrongylu~       2 def     101107. nematode           2     1.62  
    ##  5 Gnathostoma dol~       4 def     108486. nematode           4   NaN     
    ##  6 Gnathostoma his~       4 def     108486. nematode           4   147.    
    ##  7 Muellerius capi~       2 def      47466. nematode           2     0.0692
    ##  8 Neostrongylus l~       2 def      47466. nematode           2     0.0179
    ##  9 Parelaphostrong~       2 def      82351. nematode           2     0.370 
    ## 10 Parelaphostrong~       2 def     163059. nematode           2     1.21  
    ## # ... with 14 more rows, and 13 more variables: adult_dt <dbl>,
    ## #   complex <chr>, hatch <chr>, trans_strat <chr>, propagule_eaten <chr>,
    ## #   propagule_size_eaten <dbl>, propagule_growth_start <chr>,
    ## #   propagule_size_grow_start <dbl>, Egg.hatch <chr>,
    ## #   Laid_infective <chr>, devo_egg <dbl>, devo_free_larva <dbl>,
    ## #   time_to_infectivity <dbl>
…
