…
I reduced the dataset of family names to just include the ones in the
tree.

There are more rows in data than tip labels. This is because some
families were synonomized, resulting in several rows in the data with
the same family (otl) name.

    ## # A tibble: 27 x 2
    ##    otl_name              n
    ##    <chr>             <int>
    ##  1 Acanthocolpidae       2
    ##  2 Anisakidae            2
    ##  3 Apocreadiidae         3
    ##  4 Aporocotylidae        2
    ##  5 Aspidogastridae       2
    ##  6 Azygiidae             2
    ##  7 Brachycladiidae       3
    ##  8 Brumptidae            2
    ##  9 Cephalobothriidae     2
    ## 10 Cephalogonimidae      2
    ## # ... with 17 more rows
…
